Aulas AD 1 - Análise das eleições presidenciais 2018 x 2022
…
`summarise()` has grouped output by 'uf'. You can override using the `.groups`
argument.

eleicoes_dif

# A tibble: 56 × 6
# Groups:   uf [28]
   uf    ano_eleicao perc_votos_jb perc_votos_pt dif_jb_pt direcao 
   <chr>       <dbl>         <dbl>         <dbl>     <dbl> <chr>   
 1 AC           2018          62.2          18.5     43.7  diminuiu
 2 AC           2022          62.5          29.3     33.2  diminuiu
 3 AL           2018          34.4          44.8    -10.3  diminuiu
 4 AL           2022          36.0          56.5    -20.5  diminuiu
 5 AM           2018          43.5          40.3      3.18 diminuiu
 6 AM           2022          42.8          49.6     -6.78 diminuiu
 7 AP           2018          40.7          32.8      7.97 diminuiu
 8 AP           2022          43.4          45.7     -2.26 diminuiu
 9 BA           2018          23.4          60.3    -36.9  diminuiu
10 BA           2022          24.3          69.7    -45.4  diminuiu
# … with 46 more rows
# ℹ Use `print(n = ...)` to see more rows
…
